…
```
## Data loaded
```
Loaded data has three components:
e, f, p

e contains the response data:

```r
data$e
```

```
## # A tibble: 198 x 387
##    X001.QC X002.PTB X003.Control X004.Control X005.PTB X006.Control X007.Control
##      <dbl>    <dbl>        <dbl>        <dbl>    <dbl>        <dbl>        <dbl>
##  1      0        0           0             0        0            0           0  
##  2   6061.    4777.         41.4        5934.    5177.        4944.         95.4
##  3   3980.    3771.       4420.         5389.    3896.        4350.       4824. 
##  4   5387.   10178.       8155.         7061.    7733.        8053.      10824. 
##  5   5962.    3709.       4646.         7852.    4591.        8808.       4796. 
##  6   6553.    5508.       5636.         5438.    3951.        7171.       7518. 
##  7   3026.    3162.       3475.         2912.    2667.        2940.       3370. 
##  8    872.     769.       1024.          803.     664.         836.       1210. 
##  9   6690.    5622.       7572.         4285.    4589.        4289.       5249. 
## 10   1250.    1504.       1732.          704.    1062.        1187.       1185. 
## # ... with 188 more rows, and 380 more variables: X008.QC <dbl>,
## #   X009.Control <dbl>, X010.Control <dbl>, X011.Control <dbl>, X012.PTB <dbl>,
## #   X013.Control <dbl>, X014.Control <dbl>, X015.Control <dbl>, X016.PTB <dbl>,
## #   X017.PTB <dbl>, X018.QC <dbl>, X020.QC <dbl>, X021.Control <dbl>,
## #   X022.Control <dbl>, X023.Control <dbl>, X024.Control <dbl>,
## #   X025.Control <dbl>, X026.Control <dbl>, X027.PTB <dbl>, X028.PTB <dbl>,
## #   X029.Control <dbl>, X030.QC <dbl>, X031.Control <dbl>, X032.Control <dbl>,
## #   X033.PTB <dbl>, X034.PTB <dbl>, X035.PTB <dbl>, X036.Control <dbl>,
## #   X037.PTB <dbl>, X038.Control <dbl>, X039.Control <dbl>, X040.QC <dbl>,
…
f is the summary of all considered features:

```r
data$f
```

```
## # A tibble: 198 x 2
##    label                                            No
##    <chr>                                         <dbl>
##  1 Styrene                                           0
##  2 3-Picoline                                        1
##  3 Hexanoic acid, methyl ester                       2
##  4 Cyclotetrasiloxane, octamethyl-                   3
##  5 Butanoic acid, 3-hydroxy-, methyl ester, (S)-     4
##  6 Decane                                            5
##  7 Acetic acid, trichloro-, methyl ester             6
##  8 .alpha.-Methoxymethoxy-3-methoxymethoxybenzyl     7
##  9 Methyl 1-Dideuterio-2-propenyl Ether              8
## 10 1-isopropyl-2,3-dimethyl-aziridine                9
## # ... with 188 more rows
```
p is the summary of all samples, time is the injection order:

```r
data$p
```

```
## # A tibble: 387 x 4
##    label        batch sampleType  time
##    <chr>        <dbl> <chr>      <dbl>
##  1 X001.QC          1 QC             1
##  2 X002.PTB         1 Sample         2
##  3 X003.Control     1 Sample         3
##  4 X004.Control     1 Sample         4
##  5 X005.PTB         1 Sample         5
##  6 X006.Control     1 Sample         6
##  7 X007.Control     1 Sample         7
##  8 X008.QC          1 QC             8
##  9 X009.Control     1 Sample         9
## 10 X010.Control     1 Sample        10
## # ... with 377 more rows
```
…
